<svg width="46" height="46" viewBox="0 0 46 46" fill="none" xmlns="http://www.w3.org/2000/svg">
<path d="M22.6628 45.2941C35.1791 45.2941 45.3256 35.1547 45.3256 22.6471C45.3256 10.1394 35.1791 0 22.6628 0C10.1465 0 0 10.1394 0 22.6471C0 35.1547 10.1465 45.2941 22.6628 45.2941Z" fill="#FAFAFA"/>
<path d="M32.1389 9.68262H13.1867C11.256 9.68262 9.6908 11.2467 9.6908 13.1761V32.1151C9.6908 34.0447 11.2559 35.6086 13.1867 35.6086H22.5337L22.5499 26.3444H20.1411C19.8281 26.3444 19.574 26.0914 19.5729 25.7786L19.5612 22.7921C19.5599 22.4778 19.815 22.222 20.1295 22.222H22.5341V19.3365C22.5341 15.9879 24.5806 14.1645 27.5698 14.1645H30.0229C30.3365 14.1645 30.5912 14.4188 30.5912 14.7325V17.2505C30.5912 17.5641 30.3368 17.8184 30.0232 17.8184L28.5177 17.8193C26.8921 17.8193 26.5771 18.5911 26.5771 19.7242V22.2224H30.1493C30.4899 22.2224 30.7539 22.5194 30.7136 22.8569L30.3594 25.8434C30.3257 26.1293 30.0831 26.3446 29.7951 26.3446H26.5933L26.5771 35.6092H32.1388C34.0695 35.6092 35.6347 34.0449 35.6347 32.1156V13.1761C35.6348 11.2468 34.0696 9.68262 32.1389 9.68262Z" fill="#28A96B"/>
<path d="M22.5336 35.6109L22.5498 26.3467H22.5101V35.6109H22.5336Z" fill="#28A96B"/>
</svg>
